[INFO ] 2024-08-26 14:17:52.473 [main] ReportManager - 
[0;7m------------------------------------------------------------------------------------------------------------------------------------------------
                                                    Powered by [1mSHAFT v.8.3.20240813[22m                                                    
                                   Visit SHAFT's user guide [4mhttps://shafthq.github.io/[24m to learn more                                   
------------------------------------------------------------------------------------------------------------------------------------------------
[0m
[INFO ] 2024-08-26 14:17:52.477 [] ReportManager - Checking for engine updates...
[INFO ] 2024-08-26 14:17:52.480 [] ReportManager - Initializing Summary Reporting Environment...
[INFO ] 2024-08-26 14:17:52.481 [] ReportManager - Initializing Allure Reporting Environment...
[INFO ] 2024-08-26 14:17:52.484 [main] ReportManager - TestNG run detected...
[INFO ] 2024-08-26 14:17:52.628 [main] ReportManager - 
[0;7m------------------------------------------------------------------------------------------------------------------------------------------------
                                             Starting execution of suite setup configuration method                                             
                                          'com.shaft.listeners.internal.ConfigurationHelper.suiteSetup'                                          
------------------------------------------------------------------------------------------------------------------------------------------------
[0m
[INFO ] 2024-08-26 14:17:52.638 [main] ReportManager - Initializing Properties...
[INFO ] 2024-08-26 14:17:52.685 [main] ReportManager - 
[0;7m------------------------------------------------------------------------------------------------------------------------------------------------
                                        Starting Execution: '1 out of 1' test cases in the current suite                                        
                                                 Test Method: 'API.Requests.testgetuserlist.TC0'
------------------------------------------------------------------------------------------------------------------------------------------------
[0m
[INFO ] 2024-08-26 14:17:52.805 [] ReportManager - Loaded OpenCV "opencv_java490".
[DEBUG] 2024-08-26 14:17:53.114 [main] cache - Couldn't find template in cache for "http-request.ftl"("en_US", UTF-8, parsed); will try to load it.
[DEBUG] 2024-08-26 14:17:53.114 [main] cache - TemplateLoader.findTemplateSource("http-request.ftl"): Found
[DEBUG] 2024-08-26 14:17:53.115 [main] cache - Loading template for "http-request.ftl"("en_US", UTF-8, parsed) from "jar:file:/C:/Users/nona5/.m2/repository/io/qameta/allure/allure-attachments/2.29.0/allure-attachments-2.29.0.jar!/tpl/http-request.ftl"
[DEBUG] 2024-08-26 14:17:54.081 [main] cache - Couldn't find template in cache for "http-response.ftl"("en_US", UTF-8, parsed); will try to load it.
[DEBUG] 2024-08-26 14:17:54.082 [main] cache - TemplateLoader.findTemplateSource("http-response.ftl"): Found
[DEBUG] 2024-08-26 14:17:54.082 [main] cache - Loading template for "http-response.ftl"("en_US", UTF-8, parsed) from "jar:file:/C:/Users/nona5/.m2/repository/io/qameta/allure/allure-attachments/2.29.0/allure-attachments-2.29.0.jar!/tpl/http-response.ftl"
[INFO ] 2024-08-26 14:17:54.089 [main] ReportManager - Response status code: "200", status line: "HTTP/1.1 200 OK"
[INFO ] 2024-08-26 14:17:54.090 [main] ReportManager - Actual response status code "200" is successful (Between 200 and 299).
[INFO ] 2024-08-26 14:17:54.414 [] ReportManager - Engine Update check done for the day. 👍
[INFO ] 2024-08-26 14:17:54.418 [main] ReportManager - Handle response; GET | Response Time: 834ms.
[INFO ] 2024-08-26 14:17:54.422 [main] ReportManager - {
[INFO ] 2024-08-26 14:17:54.423 [main] ReportManager -     "page": 2,
[INFO ] 2024-08-26 14:17:54.423 [main] ReportManager -     "per_page": 6,
[INFO ] 2024-08-26 14:17:54.423 [main] ReportManager -     "total": 12,
[INFO ] 2024-08-26 14:17:54.423 [main] ReportManager -     "total_pages": 2,
[INFO ] 2024-08-26 14:17:54.423 [main] ReportManager -     "data": [
[INFO ] 2024-08-26 14:17:54.423 [main] ReportManager -         {
[INFO ] 2024-08-26 14:17:54.423 [main] ReportManager -             "id": 7,
[INFO ] 2024-08-26 14:17:54.423 [main] ReportManager -             "email": "michael.lawson@reqres.in",
[INFO ] 2024-08-26 14:17:54.424 [main] ReportManager -             "first_name": "Michael",
[INFO ] 2024-08-26 14:17:54.424 [main] ReportManager -             "last_name": "Lawson",
[INFO ] 2024-08-26 14:17:54.424 [main] ReportManager -             "avatar": "https://reqres.in/img/faces/7-image.jpg"
[INFO ] 2024-08-26 14:17:54.424 [main] ReportManager -         },
[INFO ] 2024-08-26 14:17:54.424 [main] ReportManager -         {
[INFO ] 2024-08-26 14:17:54.424 [main] ReportManager -             "id": 8,
[INFO ] 2024-08-26 14:17:54.424 [main] ReportManager -             "email": "lindsay.ferguson@reqres.in",
[INFO ] 2024-08-26 14:17:54.424 [main] ReportManager -             "first_name": "Lindsay",
[INFO ] 2024-08-26 14:17:54.424 [main] ReportManager -             "last_name": "Ferguson",
[INFO ] 2024-08-26 14:17:54.425 [main] ReportManager -             "avatar": "https://reqres.in/img/faces/8-image.jpg"
[INFO ] 2024-08-26 14:17:54.425 [main] ReportManager -         },
[INFO ] 2024-08-26 14:17:54.425 [main] ReportManager -         {
[INFO ] 2024-08-26 14:17:54.425 [main] ReportManager -             "id": 9,
[INFO ] 2024-08-26 14:17:54.425 [main] ReportManager -             "email": "tobias.funke@reqres.in",
[INFO ] 2024-08-26 14:17:54.425 [main] ReportManager -             "first_name": "Tobias",
[INFO ] 2024-08-26 14:17:54.425 [main] ReportManager -             "last_name": "Funke",
[INFO ] 2024-08-26 14:17:54.425 [main] ReportManager -             "avatar": "https://reqres.in/img/faces/9-image.jpg"
[INFO ] 2024-08-26 14:17:54.425 [main] ReportManager -         },
[INFO ] 2024-08-26 14:17:54.425 [main] ReportManager -         {
[INFO ] 2024-08-26 14:17:54.425 [main] ReportManager -             "id": 10,
[INFO ] 2024-08-26 14:17:54.426 [main] ReportManager -             "email": "byron.fields@reqres.in",
[INFO ] 2024-08-26 14:17:54.426 [main] ReportManager -             "first_name": "Byron",
[INFO ] 2024-08-26 14:17:54.426 [main] ReportManager -             "last_name": "Fields",
[INFO ] 2024-08-26 14:17:54.426 [main] ReportManager -             "avatar": "https://reqres.in/img/faces/10-image.jpg"
[INFO ] 2024-08-26 14:17:54.426 [main] ReportManager -         },
[INFO ] 2024-08-26 14:17:54.426 [main] ReportManager -         {
[INFO ] 2024-08-26 14:17:54.426 [main] ReportManager -             "id": 11,
[INFO ] 2024-08-26 14:17:54.426 [main] ReportManager -             "email": "george.edwards@reqres.in",
[INFO ] 2024-08-26 14:17:54.426 [main] ReportManager -             "first_name": "George",
[INFO ] 2024-08-26 14:17:54.426 [main] ReportManager -             "last_name": "Edwards",
[INFO ] 2024-08-26 14:17:54.427 [main] ReportManager -             "avatar": "https://reqres.in/img/faces/11-image.jpg"
[INFO ] 2024-08-26 14:17:54.427 [main] ReportManager -         },
[INFO ] 2024-08-26 14:17:54.427 [main] ReportManager -         {
[INFO ] 2024-08-26 14:17:54.427 [main] ReportManager -             "id": 12,
[INFO ] 2024-08-26 14:17:54.427 [main] ReportManager -             "email": "rachel.howell@reqres.in",
[INFO ] 2024-08-26 14:17:54.427 [main] ReportManager -             "first_name": "Rachel",
[INFO ] 2024-08-26 14:17:54.427 [main] ReportManager -             "last_name": "Howell",
[INFO ] 2024-08-26 14:17:54.427 [main] ReportManager -             "avatar": "https://reqres.in/img/faces/12-image.jpg"
[INFO ] 2024-08-26 14:17:54.427 [main] ReportManager -         }
[INFO ] 2024-08-26 14:17:54.427 [main] ReportManager -     ],
[INFO ] 2024-08-26 14:17:54.427 [main] ReportManager -     "support": {
[INFO ] 2024-08-26 14:17:54.427 [main] ReportManager -         "url": "https://reqres.in/#support-heading",
[INFO ] 2024-08-26 14:17:54.428 [main] ReportManager -         "text": "To keep ReqRes free, contributions towards server costs are appreciated!"
[INFO ] 2024-08-26 14:17:54.428 [main] ReportManager -     }
[INFO ] 2024-08-26 14:17:54.428 [main] ReportManager - }
[INFO ] 2024-08-26 14:17:54.442 [main] ReportManager - Successfully created attachment 'SHAFT Engine Logs - Current Method log: TC0'
[INFO ] 2024-08-26 14:17:54.442 [main] ReportManager - 
[0;7m------------------------------------------------------------------------------------------------------------------------------------------------
                                      Finished Execution of Test Method: 'API.Requests.testgetuserlist.TC0'
                                                              Test Status: 'Passed'                                                              
------------------------------------------------------------------------------------------------------------------------------------------------
[0m
[INFO ] 2024-08-26 14:17:54.481 [main] ReportManager - 
[0;7m------------------------------------------------------------------------------------------------------------------------------------------------
                                           Starting execution of engine tear down configuration method                                           
                                        'com.shaft.listeners.internal.ConfigurationHelper.engineTearDown'                                        
------------------------------------------------------------------------------------------------------------------------------------------------
[0m
[INFO ] 2024-08-26 14:17:54.481 [main] ReportManager - Successfully created attachment 'SHAFT Engine Logs - Execution log'
